…
We can then use the `tidy()` function from `tidytext` to gather the relevant parameters we've estimated. To get the $\beta$ per-topic-per-word probabilities (i.e., the probability that the given term belongs to a given topic) we can do the following.


``` r
lda_beta <- tidy(lda_output, matrix = "beta")

lda_beta %>%
  arrange(-beta)
```

```
## # A tibble: 104,730 × 3
##    topic term      beta
##    <int> <chr>    <dbl>
##  1     7 percent 0.0323
##  2    10 bush    0.0170
##  3    10 i       0.0156
##  4     8 new     0.0134
##  5     1 percent 0.0133
##  6    10 dukakis 0.0132
##  7     5 bank    0.0127
##  8     5 new     0.0127
##  9     6 central 0.0120
## 10     9 i       0.0110
## # ℹ 104,720 more rows
```

And to get the $\gamma$ per-document-per-topic probabilities (i.e., the probability that a given document (here: article) belongs to a particular topic) we do the following.



``` r
lda_gamma <- tidy(lda_output, matrix = "gamma")

lda_gamma %>%
  arrange(-gamma)
```

```
## # A tibble: 1,000 × 3
##    document topic gamma
##       <int> <int> <dbl>
##  1       76     1 1.000
##  2       81     9 1.000
##  3        6     7 1.000
##  4       43    10 1.000
##  5       95     5 1.000
##  6       77    10 1.000
##  7       29     3 1.000
##  8       80     3 1.000
##  9       57     2 1.000
## 10       25     5 1.000
## # ℹ 990 more rows
```
…
