…
``` r
normalized_prob %>% 
    filter(word1 == "duke") %>%
    arrange(-p_together)
```

```
## # A tibble: 72 × 7
##    word1 word2           n         p     p1       p2 p_together
##    <chr> <chr>       <dbl>     <dbl>  <dbl>    <dbl>      <dbl>
##  1 duke  duke         3707 0.00157   0.0116 0.0116        11.8 
##  2 duke  edinburgh's   468 0.000198  0.0116 0.00162       10.6 
##  3 duke  rothesay      149 0.0000632 0.0116 0.000591       9.25
##  4 duke  trustee       266 0.000113  0.0116 0.00111        8.77
##  5 duke  edinburgh     764 0.000324  0.0116 0.00348        8.06
##  6 duke  charles       151 0.0000640 0.0116 0.000866       6.40
##  7 duke  york          474 0.000201  0.0116 0.00272        6.39
##  8 duke  kent          266 0.000113  0.0116 0.00181        5.38
##  9 duke  award         304 0.000129  0.0116 0.00210        5.30
## 10 duke  gloucester    402 0.000170  0.0116 0.00322        4.59
## # ℹ 62 more rows
```
…
