Chapter 11 Week 6 Demo | Computational Text Analysis
…
11.3 Regex exercise

Use Regex and commands from the stringr package (check the online cheatsheet) to extract: - all the numbers - all the dates (e.g., 2026, 2027, 2025/26, etc.) - all the names mentioned in those emails - all the words related to finances (finance, financial, finances, financially, etc.)) and their frequency in each email

# extract all the numbers
emails %>%
  mutate(numbers = str_extract_all(value, "\\d+")) %>%
  # turn into a list of numbers
  unnest(numbers) %>%
  group_by(email)

## # A tibble: 53 × 3
## # Groups:   email [4]
##    value                                                           email numbers
##    <chr>                                                           <int> <chr>  
##  1 "Dear colleague,\n\nWork is continuing across our five change …     1 2025   
##  2 "Dear colleague,\n\nWork is continuing across our five change …     1 2026   
##  3 "Dear colleague,\n\nWork is continuing across our five change …     1 27     
##  4 "Dear colleague,\n\nWork is continuing across our five change …     1 2027   
##  5 "Dear colleague,\n\nWork is continuing across our five change …     1 08     
##  6 "Dear colleague,\n\nWork is continuing across our five change …     1 10     
##  7 "Dear colleague,\n\nWork is continuing across our five change …     1 2026   
##  8 "Dear colleague,\n\nHappy New Year and welcome to the new seme…     2 2025   
##  9 "Dear colleague,\n\nHappy New Year and welcome to the new seme…     2 2024   
## 10 "Dear colleague,\n\nHappy New Year and welcome to the new seme…     2 25     
## # ℹ 43 more rows
…
emails %>%
  mutate(names = str_extract_all(value, "\\b[A-Z][a-z]+\\b")) %>%
  # turn into a list of numbers
  unnest(names) %>%
  group_by(email) %>%
  select(names)

## Adding missing grouping variables: `email`

## # A tibble: 310 × 2
## # Groups:   email [4]
##    email names
##    <int> <chr>
##  1     1 Dear 
##  2     1 Work 
##  3     1 This 
##  4     1 Staff
##  5     1 Our  
##  6     1 Staff
##  7     1 Read 
##  8     1 Staff
##  9     1 It   
## 10     1 This 
## # ℹ 300 more rows

# not enough - that just captures any capitalised word
# let's say we want words that are capitalised and are not at the beginning of a sentence (i.e., not preceded by a full stop)

emails %>%
  mutate(names = str_extract_all(value, "(?<!\\.\\s)\\b[A-Z][a-z]+\\b")) %>%
  # turn into a list of numbers
  unnest(names) %>%
  group_by(email)

## # A tibble: 239 × 3
## # Groups:   email [4]
##    value                                                             email names
##    <chr>                                                             <int> <chr>
##  1 "Dear colleague,\n\nWork is continuing across our five change wo…     1 Dear 
##  2 "Dear colleague,\n\nWork is continuing across our five change wo…     1 Work 
##  3 "Dear colleague,\n\nWork is continuing across our five change wo…     1 Staff
##  4 "Dear colleague,\n\nWork is continuing across our five change wo…     1 Staff
##  5 "Dear colleague,\n\nWork is continuing across our five change wo…     1 Read 
##  6 "Dear colleague,\n\nWork is continuing across our five change wo…     1 Staff
##  7 "Dear colleague,\n\nWork is continuing across our five change wo…     1 It   
##  8 "Dear colleague,\n\nWork is continuing across our five change wo…     1 We   
##  9 "Dear colleague,\n\nWork is continuing across our five change wo…     1 Univ…
## 10 "Dear colleague,\n\nWork is continuing across our five change wo…     1 Coll…
## # ℹ 229 more rows
…
We can then use the tidy() function from tidytext to gather the relevant parameters we’ve estimated. To get the \(\beta\) per-topic-per-word probabilities (i.e., the probability that the given term belongs to a given topic) we can do the following.

lda_beta <- tidy(lda_output, matrix = "beta")

lda_beta %>%
  arrange(-beta)

## # A tibble: 104,730 × 3
##    topic term      beta
##    <int> <chr>    <dbl>
##  1     8 percent 0.0343
##  2     1 i       0.0163
##  3    10 new     0.0158
##  4     7 year    0.0134
##  5     3 state   0.0130
##  6     5 dukakis 0.0129
##  7     2 year    0.0123
##  8     8 bank    0.0110
##  9     2 i       0.0109
## 10     2 people  0.0109
## # ℹ 104,720 more rows

And to get the \(\gamma\) per-document-per-topic probabilities (i.e., the probability that a given document (here: article) belongs to a particular topic) we do the following.

lda_gamma <- tidy(lda_output, matrix = "gamma")

lda_gamma %>%
  arrange(-gamma)

## # A tibble: 1,000 × 3
##    document topic gamma
##       <int> <int> <dbl>
##  1       76     2 1.000
##  2       81     3 1.000
##  3        6     9 1.000
##  4       43     1 1.000
##  5       95    10 1.000
##  6       77     5 1.000
##  7       29     3 1.000
##  8       80     3 1.000
##  9       57     4 1.000
## 10       25     8 1.000
## # ℹ 990 more rows
…
